Project Milestone 1
…
THE FOLLOWING ANALYSIS USES THE DATASET FROM THE FIRST HALF OF THE 2024 SEASON

# Generating a dataset of the 25 pitchers that batters swing the fastest against, arranged by their average bat speed against with a count of their number of data points

pitcheraverage <- baseballdataclean2 %>%
  group_by(PLAYERNAME) %>%
  summarize(avg_bat_speed = mean(bat_speed), n = n()) %>%
  arrange(desc(avg_bat_speed))

pitcheraverage

# A tibble: 568 × 3
   PLAYERNAME       avg_bat_speed     n
   <chr>                    <dbl> <int>
 1 Forrest Whitley           78.3     5
 2 Connor Brogdon            76.5     7
 3 Tejay Antone              74.1     2
 4 Paolo Espino              74.1    25
 5 Josh Rojas                73.9     9
 6 Nick Loftin               73.6     3
 7 Luis Guillorme            73.4    10
 8 Wander Suero              73.3     1
 9 Austin Davis              73.2     8
10 Jackson Rutledge          73.2     3
# ℹ 558 more rows

pitcherfastswing2 <- pitcheraverage %>%
  filter(n >= 20)

top25fast <- pitcherfastswing2 %>%
  arrange(desc(avg_bat_speed)) %>%
  head(25)

top25fast

# A tibble: 25 × 3
   PLAYERNAME     avg_bat_speed     n
   <chr>                  <dbl> <int>
 1 Paolo Espino            74.1    25
 2 Joey Lucchesi           73.1    21
 3 Cole Sulser             73.0    22
 4 Bryan Shaw              72.9    25
 5 Max Scherzer            72.9    52
 6 Bryan Baker             72.7    59
 7 Amir Garrett            72.5    23
 8 Colin Poche             72.2    88
 9 Daniel Lynch            72.2   114
10 Brandon Bielak          72.1   111
# ℹ 15 more rows
…
# Generating a dataset of the top 25 pitchers who generate the slowest bat speeds against, arranged by their average bat speed against with a count of their number of data points

pitcheraverageslow <- baseballdataclean2 %>%
  group_by(PLAYERNAME) %>%
  summarize(avg_bat_speed = mean(bat_speed), n = n()) %>%
  arrange(avg_bat_speed)

pitcheraverageslow

# A tibble: 568 × 3
   PLAYERNAME       avg_bat_speed     n
   <chr>                    <dbl> <int>
 1 Matthew Festa             59.1     4
 2 Pablo Reyes               63.6     6
 3 Prelander Berroa          64.5     2
 4 Jake Cousins              65.1    15
 5 Danny Mendick             65.5     3
 6 Luke Williams             65.8     4
 7 Joan Adon                 66.0    22
 8 Dan Altavilla             66.9    22
 9 Brett De Geus             67.0    16
10 Ben Joyce                 67.1    61
# ℹ 558 more rows

pitcherslowswing2 <- pitcheraverageslow %>%
  filter(n >= 10)

top25slow <- pitcherslowswing2 %>%
  arrange(avg_bat_speed) %>%
  head(25)

top25slow

# A tibble: 25 × 3
   PLAYERNAME      avg_bat_speed     n
   <chr>                   <dbl> <int>
 1 Jake Cousins             65.1    15
 2 Joan Adon                66.0    22
 3 Dan Altavilla            66.9    22
 4 Brett De Geus            67.0    16
 5 Ben Joyce                67.1    61
 6 Wade Miley               67.2    38
 7 Davis Daniel             67.4    30
 8 Jacob Bird               67.4    97
 9 Orion Kerkering          67.4   148
10 Eduardo Salazar          67.5    16
# ℹ 15 more rows
…
